[
        {
            "id": "9",
            "name": "setItem",
            "origin": {
                "session": "10",
                "user": "thovel",
                "version": "1.0",
                "type": "static"
            },
            "params": {
                "itemId": "check7",
                "type": "check",
                "label": "Charger",
		"groupPathString": "A teenagers reminders",
                "input": "none"
            }
        },
        {
            "id": "8",
            "name": "setItem",
            "origin": {
                "session": "10",
                "user": "thovel",
                "version": "1.0",
                "type": "static"
            },
            "params": {
                "itemId": "check6",
                "type": "check",
		"groupPathString": "A teenagers reminders",
                "label": "Aspirin",
                "input": "none"
            }
        },
        {
            "id": "7",
            "name": "setItem",
            "origin": {
                "session": "10",
                "user": "thovel",
                "version": "1.0",
                "type": "static"
            },
            "params": {
                "itemId": "check5",
                "type": "check",
		"groupPathString": "A teenagers reminders",
                "label": "Phone",
                "input": "none"
            }
        },
        {
            "id": "6",
            "name": "setItem",
            "origin": {
                "session": "10",
                "user": "thovel",
                "version": "1.0",
                "type": "static"
            },
            "params": {
                "itemId": "check4",
                "type": "check",
		"groupPathString": "A teenagers reminders",
                "label": "Bus ticket",
                "input": "none"
            }
        },
        {
            "id": "5",
            "name": "setItem",
            "origin": {
                "session": "10",
                "user": "thovel",
                "version": "1.0",
                "type": "static"
            },
            "params": {
                "itemId": "check3",
                "type": "check",
		"groupPathString": "A teenagers reminders",
                "label": "Wallet",
                "input": "none"
            }
        },
        {
            "id": "4",
            "name": "setItem",
            "origin": {
                "session": "sessionid",
                "user": "thovel",
                "version": "1.0",
                "type": "static"
            },
            "params": {
                "itemId": "text2",
                "type": "text",
		"groupPathString": "A teenagers reminders",
                "label": "Take with",
                "input": "none"
            }
        },
        {
            "id": "3",
            "name": "setItem",
            "origin": {
                "session": "10",
                "user": "thovel",
                "version": "1.0",
                "type": "static"
            },
            "params": {
                "itemId": "check2",
                "type": "check",
		"groupPathString": "A teenagers reminders",
                "label": "Laundry",
                "input": "none"
            }
        },
        {
            "id": "2",
            "name": "setItem",
            "origin": {
                "session": "10",
                "user": "thovel",
                "version": "1.0",
                "type": "static"
            },
            "params": {
                "itemId": "check1",
                "type": "check",
		"groupPathString": "A teenagers reminders",
                "label": "Homework",
                "input": "none"
            }
        },
        {
            "id": "1",
            "name": "setItem",
            "origin": {
                "session": "sessionid",
                "user": "thovel",
                "version": "1.0",
                "type": "static"
            },
            "params": {
                "itemId": "text1",
                "type": "text",
		"groupPathString": "A teenagers reminders",
                "label": "before leaving",
                "input": "none"
            }
        }
]
