{
    "id": 1234,
    "title": "some events",
    "rel": {
	"self": "http://10.0.0.241/proto/www/data/records/record1.9.json",
	"next": "http://10.0.0.241/proto/www/data/records/record1.10.json",
	"previous": "http://10.0.0.241/proto/www/data/records/record1.8.json",
	"first": "http://10.0.0.241/proto/www/data/records/record1.0.json",
	"last": "http://10.0.0.241/proto/www/data/records/record1.json"
	},
    "events": [
        {
            "id":"50",
            "origin": {
                "session":"10",
                "user":"thovel",
                "version":"1.0",
                "type":"static"
            },
            "name": "setItem",
            "params": {
                "type":"text",
                "label":"title",
                "input":"none"
            }
        },
        {
            "id":"51",
            "origin": {
                "session":"10",
                "user":"thovel",
                "version":"1.0",
                "type":"static"
            },
            "name": "setItem",
            "params": {
                "type":"text",
                "label":"subtitle",
                "input":"none"
            }
        },
        {
            "id":"52",
            "origin": {
                "session":"10",
                "user":"thovel",
                "version":"1.0",
                "type":"static"
            },
            "name": "setItem",
            "params": {
                "type":"check",
                "label":"fietspomp"
            }
        },
        {
            "id":"53",
            "origin": {
                "session":"10",
                "user":"thovel",
                "version":"1.0",
                "type":"static"
            },
            "name": "setItemValue",
            "params": {
                "label":"title",
                "value": "Fietstocht"
            }
        },
        {
            "id":"54",
            "origin": {
                "session":"10",
                "user":"thovel",
                "version":"1.0",
                "type":"static"
            },
            "name": "setItemValue",
            "params": {
                "label":"subtitle",
                "value": "Een lekker tochtje op de fiets van een halve dag"
            }
        },
        {
            "id":"55",
            "origin": {
                "session":"10",
                "user":"thovel",
                "version":"1.0",
                "type":"static"
            },
            "name": "setItemValue",
            "params": {
                "label":"fietspomp",
                "value": "checked"
            }
        }
    ]
}
